#
# There is insufficient memory for the Java Runtime Environment to continue.
# Native memory allocation (malloc) failed to allocate 1122368 bytes for Chunk::new
# Possible reasons:
#   The system is out of physical RAM or swap space
#   In 32 bit mode, the process size limit was hit
# Possible solutions:
#   Reduce memory load on the system
#   Increase physical memory or swap space
#   Check if swap backing store is full
#   Use 64 bit Java on a 64 bit OS
#   Decrease Java heap size (-Xmx/-Xms)
#   Decrease number of Java threads
#   Decrease Java thread stack sizes (-Xss)
#   Set larger code cache with -XX:ReservedCodeCacheSize=
# This output file may be truncated or incomplete.
#
#  Out of Memory Error (allocation.cpp:390), pid=31160, tid=0x00000000000061a0
#
# JRE version: OpenJDK Runtime Environment (8.0_152-b02) (build 1.8.0_152-release-1024-b02)
# Java VM: OpenJDK 64-Bit Server VM (25.152-b02 mixed mode windows-amd64 compressed oops)
# Failed to write core dump. Minidumps are not enabled by default on client versions of Windows
#

---------------  T H R E A D  ---------------

Current thread (0x00000000180cf800):  JavaThread "C2 CompilerThread1" daemon [_thread_in_native, id=24992, stack(0x0000000018990000,0x0000000018a90000)]

Stack: [0x0000000018990000,0x0000000018a90000]
[error occurred during error reporting (printing stack bounds), id 0xc0000005]

Native frames: (J=compiled Java code, j=interpreted, Vv=VM code, C=native code)


Current CompileTask:
C2:  39171 11925       4       org.gradle.api.internal.artifacts.transform.DefaultVariantTransformRegistration::transform (9 bytes)


---------------  P R O C E S S  ---------------

Java Threads: ( => current thread )
  0x000000001ba9e800 JavaThread "ForkJoinPool.commonPool-worker-2" daemon [_thread_blocked, id=17852, stack(0x000000002d5b0000,0x000000002d6b0000)]
  0x000000001ba9d000 JavaThread "Cache worker for Java compile cache (C:\Users\JUMIA-2804\AndroidStudioProjects\WinnersWW\.gradle\4.4\javaCompile)" [_thread_blocked, id=21680, stack(0x000000002d4b0000,0x000000002d5b0000)]
  0x000000001ec15800 JavaThread "Task worker for ':' Thread 7" [_thread_blocked, id=13940, stack(0x000000002bab0000,0x000000002bbb0000)]
  0x000000001ec17000 JavaThread "Task worker for ':' Thread 6" [_thread_blocked, id=5916, stack(0x000000002b9b0000,0x000000002bab0000)]
  0x000000001ec19800 JavaThread "Task worker for ':' Thread 5" [_thread_blocked, id=4536, stack(0x000000002b8b0000,0x000000002b9b0000)]
  0x000000001ec14000 JavaThread "Task worker for ':' Thread 4" [_thread_blocked, id=27100, stack(0x000000002b7b0000,0x000000002b8b0000)]
  0x000000001ec18800 JavaThread "Task worker for ':' Thread 3" [_thread_blocked, id=21964, stack(0x000000002b6b0000,0x000000002b7b0000)]
  0x000000001fa0e800 JavaThread "Task worker for ':' Thread 2" [_thread_blocked, id=22972, stack(0x000000002b5b0000,0x000000002b6b0000)]
  0x000000001fa0d000 JavaThread "Task worker for ':'" [_thread_in_Java, id=17140, stack(0x000000002b4b0000,0x000000002b5b0000)]
  0x000000001fa0c800 JavaThread "Cache worker for Build Output Cleanup Cache (C:\Users\JUMIA-2804\AndroidStudioProjects\WinnersWW\.gradle\buildOutputCleanup)" [_thread_blocked, id=27488, stack(0x000000002b3b0000,0x000000002b4b0000)]
  0x000000001fa0f800 JavaThread "Cache worker for task history cache (C:\Users\JUMIA-2804\AndroidStudioProjects\WinnersWW\.gradle\4.4\taskHistory)" [_thread_blocked, id=29232, stack(0x000000002b2b0000,0x000000002b3b0000)]
  0x000000001fa0e000 JavaThread "Cache worker for file content cache (C:\Users\JUMIA-2804\AndroidStudioProjects\WinnersWW\.gradle\4.4\fileContent)" [_thread_blocked, id=13436, stack(0x000000002b1b0000,0x000000002b2b0000)]
  0x000000001fa10000 JavaThread "build operations Thread 8" [_thread_blocked, id=12120, stack(0x000000002b0b0000,0x000000002b1b0000)]
  0x000000001fa04000 JavaThread "build operations Thread 7" [_thread_blocked, id=16092, stack(0x000000002afb0000,0x000000002b0b0000)]
  0x000000001fa0b000 JavaThread "build operations Thread 6" [_thread_blocked, id=568, stack(0x000000002aeb0000,0x000000002afb0000)]
  0x000000001fa05800 JavaThread "build operations Thread 5" [_thread_blocked, id=11572, stack(0x000000002adb0000,0x000000002aeb0000)]
  0x000000001fa0a000 JavaThread "build operations Thread 4" [_thread_blocked, id=23408, stack(0x000000002acb0000,0x000000002adb0000)]
  0x000000001fa07000 JavaThread "build operations Thread 3" [_thread_blocked, id=8196, stack(0x000000002abb0000,0x000000002acb0000)]
  0x000000001fa06800 JavaThread "build operations Thread 2" [_thread_blocked, id=1320, stack(0x000000002aab0000,0x000000002abb0000)]
  0x000000001fa02800 JavaThread "build operations" [_thread_blocked, id=12576, stack(0x000000002a9b0000,0x000000002aab0000)]
  0x000000001fa09800 JavaThread "Cache worker for Artifact transforms cache (C:\Users\JUMIA-2804\.gradle\caches\transforms-1)" [_thread_blocked, id=16080, stack(0x000000002a8b0000,0x000000002a9b0000)]
  0x000000001fa05000 JavaThread "Cache worker for file hash cache (C:\Users\JUMIA-2804\AndroidStudioProjects\WinnersWW\.gradle\4.4\fileHashes)" [_thread_blocked, id=21352, stack(0x000000002a7b0000,0x000000002a8b0000)]
  0x000000001fa08800 JavaThread "Stdin handler" [_thread_blocked, id=26508, stack(0x000000002a6b0000,0x000000002a7b0000)]
  0x000000001fa01000 JavaThread "Asynchronous log dispatcher for DefaultDaemonConnection: socket connection from /127.0.0.1:63417 to /127.0.0.1:63514" [_thread_blocked, id=19300, stack(0x000000002a5b0000,0x000000002a6b0000)]
  0x000000001fa03800 JavaThread "Cancel handler" [_thread_blocked, id=10928, stack(0x000000002a4b0000,0x000000002a5b0000)]
  0x000000001fa02000 JavaThread "Handler for socket connection from /127.0.0.1:63417 to /127.0.0.1:63514" [_thread_in_native, id=8416, stack(0x000000002a3b0000,0x000000002a4b0000)]
  0x000000001fa0b800 JavaThread "Java2D Disposer" daemon [_thread_blocked, id=4368, stack(0x0000000027cb0000,0x0000000027db0000)]
  0x000000001ba9f000 JavaThread "Worker Daemon Execution Thread 7" [_thread_blocked, id=32688, stack(0x0000000025a50000,0x0000000025b50000)]
  0x000000001cf40800 JavaThread "Worker Daemon Execution Thread 6" [_thread_blocked, id=29384, stack(0x0000000025950000,0x0000000025a50000)]
  0x000000001cf3f800 JavaThread "Worker Daemon Execution Thread 5" [_thread_blocked, id=29772, stack(0x0000000025850000,0x0000000025950000)]
  0x000000001d885000 JavaThread "Worker Daemon Execution Thread 4" [_thread_blocked, id=2300, stack(0x0000000025750000,0x0000000025850000)]
  0x000000001d886800 JavaThread "Worker Daemon Execution Thread 3" [_thread_blocked, id=8076, stack(0x0000000025650000,0x0000000025750000)]
  0x000000001d886000 JavaThread "Worker Daemon Execution Thread 2" [_thread_blocked, id=25236, stack(0x0000000025550000,0x0000000025650000)]
  0x000000001d87d800 JavaThread "Worker Daemon Execution" [_thread_blocked, id=28620, stack(0x0000000025450000,0x0000000025550000)]
  0x000000001cf3f000 JavaThread "Memory manager" [_thread_blocked, id=23424, stack(0x00000000228b0000,0x00000000229b0000)]
  0x000000001a657000 JavaThread "File lock request listener" [_thread_in_native, id=13608, stack(0x000000001cab0000,0x000000001cbb0000)]
  0x000000001a0c4000 JavaThread "Cache worker for file hash cache (C:\Users\JUMIA-2804\.gradle\caches\4.4\fileHashes)" [_thread_blocked, id=24696, stack(0x000000001c9b0000,0x000000001cab0000)]
  0x0000000019fec000 JavaThread "Daemon worker" [_thread_blocked, id=27188, stack(0x000000001b3e0000,0x000000001b4e0000)]
  0x0000000019f8d800 JavaThread "Daemon" [_thread_blocked, id=11608, stack(0x000000001aee0000,0x000000001afe0000)]
  0x0000000019f22000 JavaThread "Daemon periodic checks" [_thread_blocked, id=17808, stack(0x000000001ade0000,0x000000001aee0000)]
  0x000000001a16f000 JavaThread "Incoming local TCP Connector on port 63417" [_thread_in_native, id=22384, stack(0x000000001aba0000,0x000000001aca0000)]
  0x0000000018155800 JavaThread "Service Thread" daemon [_thread_blocked, id=4996, stack(0x0000000018c90000,0x0000000018d90000)]
  0x00000000180da800 JavaThread "C1 CompilerThread3" daemon [_thread_blocked, id=21404, stack(0x0000000018b90000,0x0000000018c90000)]
  0x00000000161bb000 JavaThread "C2 CompilerThread2" daemon [_thread_in_native, id=10576, stack(0x0000000018a90000,0x0000000018b90000)]
=>0x00000000180cf800 JavaThread "C2 CompilerThread1" daemon [_thread_in_native, id=24992, stack(0x0000000018990000,0x0000000018a90000)]
  0x00000000180cc800 JavaThread "C2 CompilerThread0" daemon [_thread_in_native, id=31844, stack(0x0000000018890000,0x0000000018990000)]
  0x00000000180d6000 JavaThread "Attach Listener" daemon [_thread_blocked, id=3588, stack(0x0000000018790000,0x0000000018890000)]
  0x00000000180d5000 JavaThread "Signal Dispatcher" daemon [_thread_blocked, id=6084, stack(0x0000000018690000,0x0000000018790000)]
  0x00000000161b1800 JavaThread "Finalizer" daemon [_thread_blocked, id=22672, stack(0x00000000184a0000,0x00000000185a0000)]
  0x0000000002357000 JavaThread "Reference Handler" daemon [_thread_blocked, id=32284, stack(0x0000000017fa0000,0x00000000180a0000)]
  0x00000000023ee000 JavaThread "main" [_thread_blocked, id=30648, stack(0x0000000002120000,0x0000000002220000)]

Other Threads:
  0x00000000161a5800 VMThread [stack: 0x0000000017ea0000,0x0000000017fa0000] [id=11028]
  0x0000000018156000 WatcherThread [stack: 0x0000000018d90000,0x0000000018e90000] [id=26068]

VM state:not at safepoint (normal execution)

VM Mutex/Monitor currently owned by a thread: None

Heap:
 PSYoungGen      total 291328K, used 63012K [0x00000000e0000000, 0x00000000f9700000, 0x0000000100000000)
  eden space 268800K, 17% used [0x00000000e0000000,0x00000000e2d93948,0x00000000f0680000)
  from space 22528K, 72% used [0x00000000f0680000,0x00000000f16759c0,0x00000000f1c80000)
  to   space 23040K, 0% used [0x00000000f8080000,0x00000000f8080000,0x00000000f9700000)
 ParOldGen       total 219136K, used 31903K [0x00000000a0000000, 0x00000000ad600000, 0x00000000e0000000)
  object space 219136K, 14% used [0x00000000a0000000,0x00000000a1f27d10,0x00000000ad600000)
 Metaspace       used 69502K, capacity 71844K, committed 72024K, reserved 1112064K
  class space    used 8986K, capacity 9481K, committed 9600K, reserved 1048576K

Card table byte_map: [0x00000000117b0000,0x0000000011ac0000] byte_map_base: 0x00000000112b0000

Marking Bits: (ParMarkBitMap*) 0x0000000065364970
 Begin Bits: [0x00000000124c0000, 0x0000000013cc0000)
 End Bits:   [0x0000000013cc0000, 0x00000000154c0000)

Polling page: 0x0000000002220000

CodeCache: size=245760Kb used=33744Kb max_used=34028Kb free=212015Kb
 bounds [0x00000000023f0000, 0x0000000004560000, 0x00000000113f0000]
 total_blobs=10942 nmethods=10030 adapters=824
 compilation: enabled

Compilation events (10 events):
Event: 39.077 Thread 0x00000000180da800 11965       2       com.google.common.collect.ImmutableMapEntry::createEntryArray (5 bytes)
Event: 39.077 Thread 0x00000000180da800 nmethod 11965 0x0000000003ea2cd0 code [0x0000000003ea2e20, 0x0000000003ea2fd0]
Event: 39.107 Thread 0x00000000180da800 11969       3       com.android.apkzlib.utils.CachedSupplier::<init> (15 bytes)
Event: 39.108 Thread 0x00000000180da800 nmethod 11969 0x0000000003ea28d0 code [0x0000000003ea2a20, 0x0000000003ea2bf0]
Event: 39.140 Thread 0x00000000180da800 11973       3       com.google.common.collect.Maps::newHashMap (8 bytes)
Event: 39.140 Thread 0x00000000180da800 nmethod 11973 0x0000000003ecc110 code [0x0000000003ecc280, 0x0000000003ecc530]
Event: 39.150 Thread 0x00000000180da800 11974       3       java.io.RandomAccessFile$1::<init> (10 bytes)
Event: 39.150 Thread 0x00000000180da800 nmethod 11974 0x0000000003ecbd50 code [0x0000000003ecbea0, 0x0000000003ecc070]
Event: 39.150 Thread 0x00000000180da800 11975       3       java.io.RandomAccessFile$1::close (8 bytes)
Event: 39.151 Thread 0x00000000180da800 nmethod 11975 0x0000000003ef6ad0 code [0x0000000003ef6c40, 0x0000000003ef6e28]

GC Heap History (10 events):
Event: 16.728 GC heap before
{Heap before GC invocations=10 (full 2):
 PSYoungGen      total 178688K, used 169994K [0x00000000e0000000, 0x00000000f0a80000, 0x0000000100000000)
  eden space 163328K, 94% used [0x00000000e0000000,0x00000000e97034b8,0x00000000e9f80000)
  from space 15360K, 99% used [0x00000000e9f80000,0x00000000eae7f540,0x00000000eae80000)
  to   space 20992K, 0% used [0x00000000ef600000,0x00000000ef600000,0x00000000f0a80000)
 ParOldGen       total 154112K, used 26737K [0x00000000a0000000, 0x00000000a9680000, 0x00000000e0000000)
  object space 154112K, 17% used [0x00000000a0000000,0x00000000a1a1c680,0x00000000a9680000)
 Metaspace       used 57370K, capacity 58872K, committed 59028K, reserved 1099776K
  class space    used 7673K, capacity 8067K, committed 8192K, reserved 1048576K
Event: 16.744 GC heap after
Heap after GC invocations=10 (full 2):
 PSYoungGen      total 242688K, used 17648K [0x00000000e0000000, 0x00000000f0780000, 0x0000000100000000)
  eden space 224768K, 0% used [0x00000000e0000000,0x00000000e0000000,0x00000000edb80000)
  from space 17920K, 98% used [0x00000000ef600000,0x00000000f073c360,0x00000000f0780000)
  to   space 22528K, 0% used [0x00000000edb80000,0x00000000edb80000,0x00000000ef180000)
 ParOldGen       total 154112K, used 26753K [0x00000000a0000000, 0x00000000a9680000, 0x00000000e0000000)
  object space 154112K, 17% used [0x00000000a0000000,0x00000000a1a20680,0x00000000a9680000)
 Metaspace       used 57370K, capacity 58872K, committed 59028K, reserved 1099776K
  class space    used 7673K, capacity 8067K, committed 8192K, reserved 1048576K
}
Event: 16.744 GC heap before
{Heap before GC invocations=11 (full 3):
 PSYoungGen      total 242688K, used 17648K [0x00000000e0000000, 0x00000000f0780000, 0x0000000100000000)
  eden space 224768K, 0% used [0x00000000e0000000,0x00000000e0000000,0x00000000edb80000)
  from space 17920K, 98% used [0x00000000ef600000,0x00000000f073c360,0x00000000f0780000)
  to   space 22528K, 0% used [0x00000000edb80000,0x00000000edb80000,0x00000000ef180000)
 ParOldGen       total 154112K, used 26753K [0x00000000a0000000, 0x00000000a9680000, 0x00000000e0000000)
  object space 154112K, 17% used [0x00000000a0000000,0x00000000a1a20680,0x00000000a9680000)
 Metaspace       used 57370K, capacity 58872K, committed 59028K, reserved 1099776K
  class space    used 7673K, capacity 8067K, committed 8192K, reserved 1048576K
Event: 16.919 GC heap after
Heap after GC invocations=11 (full 3):
 PSYoungGen      total 242688K, used 0K [0x00000000e0000000, 0x00000000f0780000, 0x0000000100000000)
  eden space 224768K, 0% used [0x00000000e0000000,0x00000000e0000000,0x00000000edb80000)
  from space 17920K, 0% used [0x00000000ef600000,0x00000000ef600000,0x00000000f0780000)
  to   space 22528K, 0% used [0x00000000edb80000,0x00000000edb80000,0x00000000ef180000)
 ParOldGen       total 219136K, used 31879K [0x00000000a0000000, 0x00000000ad600000, 0x00000000e0000000)
  object space 219136K, 14% used [0x00000000a0000000,0x00000000a1f21d10,0x00000000ad600000)
 Metaspace       used 57370K, capacity 58872K, committed 59028K, reserved 1099776K
  class space    used 7673K, capacity 8067K, committed 8192K, reserved 1048576K
}
Event: 35.166 GC heap before
{Heap before GC invocations=12 (full 3):
 PSYoungGen      total 242688K, used 224768K [0x00000000e0000000, 0x00000000f0780000, 0x0000000100000000)
  eden space 224768K, 100% used [0x00000000e0000000,0x00000000edb80000,0x00000000edb80000)
  from space 17920K, 0% used [0x00000000ef600000,0x00000000ef600000,0x00000000f0780000)
  to   space 22528K, 0% used [0x00000000edb80000,0x00000000edb80000,0x00000000ef180000)
 ParOldGen       total 219136K, used 31879K [0x00000000a0000000, 0x00000000ad600000, 0x00000000e0000000)
  object space 219136K, 14% used [0x00000000a0000000,0x00000000a1f21d10,0x00000000ad600000)
 Metaspace       used 66163K, capacity 68144K, committed 68184K, reserved 1107968K
  class space    used 8638K, capacity 9071K, committed 9088K, reserved 1048576K
Event: 35.191 GC heap after
Heap after GC invocations=12 (full 3):
 PSYoungGen      total 247296K, used 13788K [0x00000000e0000000, 0x00000000f3200000, 0x0000000100000000)
  eden space 224768K, 0% used [0x00000000e0000000,0x00000000e0000000,0x00000000edb80000)
  from space 22528K, 61% used [0x00000000edb80000,0x00000000ee8f7290,0x00000000ef180000)
  to   space 22016K, 0% used [0x00000000f1c80000,0x00000000f1c80000,0x00000000f3200000)
 ParOldGen       total 219136K, used 31887K [0x00000000a0000000, 0x00000000ad600000, 0x00000000e0000000)
  object space 219136K, 14% used [0x00000000a0000000,0x00000000a1f23d10,0x00000000ad600000)
 Metaspace       used 66163K, capacity 68144K, committed 68184K, reserved 1107968K
  class space    used 8638K, capacity 9071K, committed 9088K, reserved 1048576K
}
Event: 37.308 GC heap before
{Heap before GC invocations=13 (full 3):
 PSYoungGen      total 247296K, used 237995K [0x00000000e0000000, 0x00000000f3200000, 0x0000000100000000)
  eden space 224768K, 99% used [0x00000000e0000000,0x00000000edaf3bb8,0x00000000edb80000)
  from space 22528K, 61% used [0x00000000edb80000,0x00000000ee8f7290,0x00000000ef180000)
  to   space 22016K, 0% used [0x00000000f1c80000,0x00000000f1c80000,0x00000000f3200000)
 ParOldGen       total 219136K, used 31887K [0x00000000a0000000, 0x00000000ad600000, 0x00000000e0000000)
  object space 219136K, 14% used [0x00000000a0000000,0x00000000a1f23d10,0x00000000ad600000)
 Metaspace       used 68881K, capacity 71156K, committed 71384K, reserved 1112064K
  class space    used 8890K, capacity 9367K, committed 9472K, reserved 1048576K
Event: 37.333 GC heap after
Heap after GC invocations=13 (full 3):
 PSYoungGen      total 290816K, used 17428K [0x00000000e0000000, 0x00000000f3600000, 0x0000000100000000)
  eden space 268800K, 0% used [0x00000000e0000000,0x00000000e0000000,0x00000000f0680000)
  from space 22016K, 79% used [0x00000000f1c80000,0x00000000f2d85350,0x00000000f3200000)
  to   space 22528K, 0% used [0x00000000f0680000,0x00000000f0680000,0x00000000f1c80000)
 ParOldGen       total 219136K, used 31895K [0x00000000a0000000, 0x00000000ad600000, 0x00000000e0000000)
  object space 219136K, 14% used [0x00000000a0000000,0x00000000a1f25d10,0x00000000ad600000)
 Metaspace       used 68881K, capacity 71156K, committed 71384K, reserved 1112064K
  class space    used 8890K, capacity 9367K, committed 9472K, reserved 1048576K
}
Event: 37.684 GC heap before
{Heap before GC invocations=14 (full 3):
 PSYoungGen      total 290816K, used 286228K [0x00000000e0000000, 0x00000000f3600000, 0x0000000100000000)
  eden space 268800K, 100% used [0x00000000e0000000,0x00000000f0680000,0x00000000f0680000)
  from space 22016K, 79% used [0x00000000f1c80000,0x00000000f2d85350,0x00000000f3200000)
  to   space 22528K, 0% used [0x00000000f0680000,0x00000000f0680000,0x00000000f1c80000)
 ParOldGen       total 219136K, used 31895K [0x00000000a0000000, 0x00000000ad600000, 0x00000000e0000000)
  object space 219136K, 14% used [0x00000000a0000000,0x00000000a1f25d10,0x00000000ad600000)
 Metaspace       used 69285K, capacity 71636K, committed 71896K, reserved 1112064K
  class space    used 8951K, capacity 9453K, committed 9472K, reserved 1048576K
Event: 37.717 GC heap after
Heap after GC invocations=14 (full 3):
 PSYoungGen      total 291328K, used 16342K [0x00000000e0000000, 0x00000000f9700000, 0x0000000100000000)
  eden space 268800K, 0% used [0x00000000e0000000,0x00000000e0000000,0x00000000f0680000)
  from space 22528K, 72% used [0x00000000f0680000,0x00000000f16759c0,0x00000000f1c80000)
  to   space 23040K, 0% used [0x00000000f8080000,0x00000000f8080000,0x00000000f9700000)
 ParOldGen       total 219136K, used 31903K [0x00000000a0000000, 0x00000000ad600000, 0x00000000e0000000)
  object space 219136K, 14% used [0x00000000a0000000,0x00000000a1f27d10,0x00000000ad600000)
 Metaspace       used 69285K, capacity 71636K, committed 71896K, reserved 1112064K
  class space    used 8951K, capacity 9453K, committed 9472K, reserved 1048576K
}

Deoptimization events (10 events):
Event: 38.957 Thread 0x000000001fa0d000 Uncommon trap: reason=class_check action=maybe_recompile pc=0x0000000003b3be18 method=java.util.stream.ReduceOps$3ReducingSink.accept(Ljava/lang/Object;)V @ 9
Event: 38.968 Thread 0x000000001fa0d000 Uncommon trap: reason=class_check action=maybe_recompile pc=0x000000000449bc44 method=com.android.apkzlib.zip.ZipField.checkVerifiesInvariants(J)V @ 25
Event: 38.968 Thread 0x000000001fa0d000 Uncommon trap: reason=class_check action=maybe_recompile pc=0x0000000003137cf0 method=java.util.zip.InflaterInputStream.read()I @ 11
Event: 38.968 Thread 0x000000001fa0d000 Uncommon trap: reason=class_check action=maybe_recompile pc=0x00000000028e28b8 method=java.util.zip.InflaterInputStream.read([BII)I @ 100
Event: 38.986 Thread 0x000000001fa0d000 Uncommon trap: reason=class_check action=maybe_recompile pc=0x000000000449bc44 method=com.android.apkzlib.zip.ZipField.checkVerifiesInvariants(J)V @ 25
Event: 38.986 Thread 0x000000001fa0d000 Uncommon trap: reason=class_check action=maybe_recompile pc=0x0000000003137cf0 method=java.util.zip.InflaterInputStream.read()I @ 11
Event: 38.986 Thread 0x000000001fa0d000 Uncommon trap: reason=class_check action=maybe_recompile pc=0x00000000028e28b8 method=java.util.zip.InflaterInputStream.read([BII)I @ 100
Event: 38.991 Thread 0x000000001fa0d000 Uncommon trap: reason=class_check action=maybe_recompile pc=0x0000000004486ccc method=com.android.apkzlib.zip.ZipField.checkVerifiesInvariants(J)V @ 25
Event: 39.150 Thread 0x000000001fa0d000 Uncommon trap: reason=class_check action=maybe_recompile pc=0x0000000003968a5c method=com.google.common.collect.ImmutableMap.copyOf(Ljava/lang/Iterable;)Lcom/google/common/collect/ImmutableMap; @ 53
Event: 39.151 Thread 0x000000001fa0d000 Uncommon trap: reason=class_check action=maybe_recompile pc=0x0000000003968a5c method=com.google.common.collect.ImmutableMap.copyOf(Ljava/lang/Iterable;)Lcom/google/common/collect/ImmutableMap; @ 53

Classes redefined (0 events):
No events

Internal exceptions (10 events):
Event: 31.961 Thread 0x0000000019fec000 Exception <a 'sun/nio/fs/WindowsException'> (0x00000000e697afe0) thrown at [D:\src\AOSP-openjdk-cygwin\jdk8u\hotspot\src\share\vm\prims\jni.cpp, line 709]
Event: 37.040 Thread 0x000000001fa0d000 Exception <a 'sun/nio/fs/WindowsException'> (0x00000000e5e83c88) thrown at [D:\src\AOSP-openjdk-cygwin\jdk8u\hotspot\src\share\vm\prims\jni.cpp, line 709]
Event: 37.202 Thread 0x000000001fa0d000 Exception <a 'java/lang/ClassNotFoundException': org/gradle/api/plugins/JavaPluginConventionBeanInfo> (0x00000000e68aba10) thrown at [D:\src\AOSP-openjdk-cygwin\jdk8u\hotspot\src\share\vm\classfile\systemDictionary.cpp, line 210]
Event: 37.203 Thread 0x000000001fa0d000 Exception <a 'java/lang/ClassNotFoundException': org/gradle/api/plugins/JavaPluginConventionCustomizer> (0x00000000e68e4ea0) thrown at [D:\src\AOSP-openjdk-cygwin\jdk8u\hotspot\src\share\vm\classfile\systemDictionary.cpp, line 210]
Event: 37.214 Thread 0x000000001fa0d000 Exception <a 'java/lang/NoSuchMethodError': java.lang.Object.lambda$comparing$ea9a8b3a$1(Ljava/util/Comparator;Ljava/util/function/Function;Ljava/lang/Object;Ljava/lang/Object;)I> (0x00000000e6973ec8) thrown at [D:\src\AOSP-openjdk-cygwin\jdk8u\hotspot\sr
Event: 37.244 Thread 0x000000001fa0d000 Exception <a 'java/lang/NoSuchMethodError': java.lang.Object.lambda$or$2(Ljava/util/function/Predicate;Ljava/lang/Object;)Z> (0x00000000e6c467c8) thrown at [D:\src\AOSP-openjdk-cygwin\jdk8u\hotspot\src\share\vm\interpreter\linkResolver.cpp, line 584]
Event: 37.391 Thread 0x000000001fa0d000 Exception <a 'java/io/FileNotFoundException'> (0x00000000effdaab0) thrown at [D:\src\AOSP-openjdk-cygwin\jdk8u\hotspot\src\share\vm\prims\jni.cpp, line 709]
Event: 38.718 Thread 0x000000001fa0d000 Exception <a 'java/lang/NoSuchMethodError': <clinit>> (0x00000000e0743b80) thrown at [D:\src\AOSP-openjdk-cygwin\jdk8u\hotspot\src\share\vm\prims\jni.cpp, line 1613]
Event: 38.943 Thread 0x000000001fa0d000 Exception <a 'java/lang/NoSuchMethodError': java.lang.Object.lambda$asRunnable$0(Lcom/android/apkzlib/utils/IOExceptionRunnable;)V> (0x00000000e1766cf8) thrown at [D:\src\AOSP-openjdk-cygwin\jdk8u\hotspot\src\share\vm\interpreter\linkResolver.cpp, line 58
Event: 38.953 Thread 0x000000001fa0d000 Exception <a 'java/lang/NoSuchMethodError': java.lang.Object.lambda$and$0(Ljava/util/function/Predicate;Ljava/lang/Object;)Z> (0x00000000e17b7618) thrown at [D:\src\AOSP-openjdk-cygwin\jdk8u\hotspot\src\share\vm\interpreter\linkResolver.cpp, line 584]

Events (10 events):
Event: 38.986 Thread 0x000000001fa0d000 DEOPT UNPACKING pc=0x000000000243557b sp=0x000000002b5ac388 mode 2
Event: 38.991 Thread 0x000000001fa0d000 Uncommon trap: trap_request=0xffffffde fr.pc=0x0000000004486ccc
Event: 38.991 Thread 0x000000001fa0d000 DEOPT PACKING pc=0x0000000004486ccc sp=0x000000002b5ac470
Event: 38.991 Thread 0x000000001fa0d000 DEOPT UNPACKING pc=0x000000000243557b sp=0x000000002b5ac428 mode 2
Event: 39.150 Thread 0x000000001fa0d000 Uncommon trap: trap_request=0xffffffde fr.pc=0x0000000003968a5c
Event: 39.150 Thread 0x000000001fa0d000 DEOPT PACKING pc=0x0000000003968a5c sp=0x000000002b5ac5f0
Event: 39.150 Thread 0x000000001fa0d000 DEOPT UNPACKING pc=0x000000000243557b sp=0x000000002b5ac548 mode 2
Event: 39.151 Thread 0x000000001fa0d000 Uncommon trap: trap_request=0xffffffde fr.pc=0x0000000003968a5c
Event: 39.151 Thread 0x000000001fa0d000 DEOPT PACKING pc=0x0000000003968a5c sp=0x000000002b5ac970
Event: 39.151 Thread 0x000000001fa0d000 DEOPT UNPACKING pc=0x000000000243557b sp=0x000000002b5ac8c8 mode 2


Dynamic libraries:
0x00007ff635720000 - 0x00007ff635751000 	C:\Program Files\Android\Android Studio\jre\bin\java.exe
0x00007ffaaf800000 - 0x00007ffaaf9e1000 	C:\WINDOWS\SYSTEM32\ntdll.dll
0x00007ffaa0560000 - 0x00007ffaa0574000 	C:\Program Files\AVAST Software\Avast\x64\aswhooka.dll
0x00007ffaae2f0000 - 0x00007ffaae3a2000 	C:\WINDOWS\System32\KERNEL32.DLL
0x00007ffaac720000 - 0x00007ffaac993000 	C:\WINDOWS\System32\KERNELBASE.dll
0x00007ffaae540000 - 0x00007ffaae5e1000 	C:\WINDOWS\System32\ADVAPI32.dll
0x00007ffaaf670000 - 0x00007ffaaf70e000 	C:\WINDOWS\System32\msvcrt.dll
0x00007ffaaf0d0000 - 0x00007ffaaf12b000 	C:\WINDOWS\System32\sechost.dll
0x00007ffaaf2f0000 - 0x00007ffaaf414000 	C:\WINDOWS\System32\RPCRT4.dll
0x00007ffaaf4e0000 - 0x00007ffaaf670000 	C:\WINDOWS\System32\USER32.dll
0x00007ffaabdc0000 - 0x00007ffaabde0000 	C:\WINDOWS\System32\win32u.dll
0x00007ffaaf4b0000 - 0x00007ffaaf4d8000 	C:\WINDOWS\System32\GDI32.dll
0x00007ffaacaf0000 - 0x00007ffaacc82000 	C:\WINDOWS\System32\gdi32full.dll
0x00007ffaabe90000 - 0x00007ffaabf2f000 	C:\WINDOWS\System32\msvcp_win.dll
0x00007ffaac9f0000 - 0x00007ffaacaea000 	C:\WINDOWS\System32\ucrtbase.dll
0x00007ffa9a7c0000 - 0x00007ffa9aa29000 	C:\WINDOWS\WinSxS\amd64_microsoft.windows.common-controls_6595b64144ccf1df_6.0.17134.285_none_fb4297e330656775\COMCTL32.dll
0x00007ffaaec40000 - 0x00007ffaaef63000 	C:\WINDOWS\System32\combase.dll
0x00007ffaac6a0000 - 0x00007ffaac71a000 	C:\WINDOWS\System32\bcryptPrimitives.dll
0x00007ffaace80000 - 0x00007ffaacead000 	C:\WINDOWS\System32\IMM32.DLL
0x0000000066150000 - 0x0000000066222000 	C:\Program Files\Android\Android Studio\jre\jre\bin\msvcr100.dll
0x0000000064ba0000 - 0x00000000653df000 	C:\Program Files\Android\Android Studio\jre\jre\bin\server\jvm.dll
0x00007ffaaf4a0000 - 0x00007ffaaf4a8000 	C:\WINDOWS\System32\PSAPI.DLL
0x00007ffa98b40000 - 0x00007ffa98b49000 	C:\WINDOWS\SYSTEM32\WSOCK32.dll
0x00007ffaaf190000 - 0x00007ffaaf1fc000 	C:\WINDOWS\System32\WS2_32.dll
0x00007ffaa9900000 - 0x00007ffaa9923000 	C:\WINDOWS\SYSTEM32\WINMM.dll
0x00007ffa9bca0000 - 0x00007ffa9bcaa000 	C:\WINDOWS\SYSTEM32\VERSION.dll
0x00007ffaa97f0000 - 0x00007ffaa981a000 	C:\WINDOWS\SYSTEM32\WINMMBASE.dll
0x00007ffaac9a0000 - 0x00007ffaac9e9000 	C:\WINDOWS\System32\cfgmgr32.dll
0x00007ffaa18e0000 - 0x00007ffaa18ef000 	C:\Program Files\Android\Android Studio\jre\jre\bin\verify.dll
0x00007ffaa1460000 - 0x00007ffaa1489000 	C:\Program Files\Android\Android Studio\jre\jre\bin\java.dll
0x00007ffaa14f0000 - 0x00007ffaa1506000 	C:\Program Files\Android\Android Studio\jre\jre\bin\zip.dll
0x00007ffaaceb0000 - 0x00007ffaae2f0000 	C:\WINDOWS\System32\SHELL32.dll
0x00007ffaaf720000 - 0x00007ffaaf7c9000 	C:\WINDOWS\System32\shcore.dll
0x00007ffaabf30000 - 0x00007ffaac63d000 	C:\WINDOWS\System32\windows.storage.dll
0x00007ffaacca0000 - 0x00007ffaaccf1000 	C:\WINDOWS\System32\shlwapi.dll
0x00007ffaabb20000 - 0x00007ffaabb31000 	C:\WINDOWS\System32\kernel.appcore.dll
0x00007ffaabb60000 - 0x00007ffaabb7f000 	C:\WINDOWS\System32\profapi.dll
0x00007ffaabb80000 - 0x00007ffaabbcc000 	C:\WINDOWS\System32\powrprof.dll
0x00007ffaabb10000 - 0x00007ffaabb1a000 	C:\WINDOWS\System32\FLTLIB.DLL
0x00007ffaa1250000 - 0x00007ffaa126a000 	C:\Program Files\Android\Android Studio\jre\jre\bin\net.dll
0x00007ffaab390000 - 0x00007ffaab3f6000 	C:\WINDOWS\system32\mswsock.dll
0x00007ffaa1180000 - 0x00007ffaa1191000 	C:\Program Files\Android\Android Studio\jre\jre\bin\nio.dll
0x00007ffaa1770000 - 0x00007ffaa178e000 	C:\Users\JUMIA-2804\.gradle\native\25\windows-amd64\native-platform.dll
0x00007ffaa18d0000 - 0x00007ffaa18dd000 	C:\Program Files\Android\Android Studio\jre\jre\bin\management.dll
0x00007ffaab550000 - 0x00007ffaab567000 	C:\WINDOWS\SYSTEM32\CRYPTSP.dll
0x00007ffaaaf70000 - 0x00007ffaaafa3000 	C:\WINDOWS\system32\rsaenh.dll
0x00007ffaab670000 - 0x00007ffaab695000 	C:\WINDOWS\SYSTEM32\bcrypt.dll
0x00007ffaaba10000 - 0x00007ffaaba38000 	C:\WINDOWS\SYSTEM32\USERENV.dll
0x00007ffaab540000 - 0x00007ffaab54b000 	C:\WINDOWS\SYSTEM32\CRYPTBASE.dll
0x00007ffaab110000 - 0x00007ffaab148000 	C:\WINDOWS\SYSTEM32\IPHLPAPI.DLL
0x00007ffaacc90000 - 0x00007ffaacc98000 	C:\WINDOWS\System32\NSI.dll
0x00007ffaa4220000 - 0x00007ffaa4236000 	C:\WINDOWS\SYSTEM32\dhcpcsvc6.DLL
0x00007ffaa4720000 - 0x00007ffaa473a000 	C:\WINDOWS\SYSTEM32\dhcpcsvc.DLL
0x00007ffa74890000 - 0x00007ffa74a26000 	C:\Program Files\Android\Android Studio\jre\jre\bin\awt.dll
0x00007ffaae3b0000 - 0x00007ffaae472000 	C:\WINDOWS\System32\OLEAUT32.dll
0x00007ffaa8d30000 - 0x00007ffaa92f7000 	C:\WINDOWS\SYSTEM32\d2d1.dll
0x00007ffaa9b30000 - 0x00007ffaa9bbb000 	C:\WINDOWS\SYSTEM32\apphelp.dll
0x00007ffaa9f10000 - 0x00007ffaa9f39000 	C:\WINDOWS\system32\DWMAPI.DLL
0x00007ffaa9cc0000 - 0x00007ffaa9d58000 	C:\WINDOWS\system32\uxtheme.dll

VM Arguments:
jvm_args: -Xmx1536m -Dfile.encoding=windows-1252 -Duser.country=US -Duser.language=en -Duser.variant 
java_command: org.gradle.launcher.daemon.bootstrap.GradleDaemon 4.4
java_class_path (initial): C:\Users\JUMIA-2804\.gradle\wrapper\dists\gradle-4.4-all\9br9xq1tocpiv8o6njlyu5op1\gradle-4.4\lib\gradle-launcher-4.4.jar
Launcher Type: SUN_STANDARD

Environment Variables:
PATH=C:\WINDOWS\system32;C:\WINDOWS;C:\WINDOWS\System32\Wbem;C:\WINDOWS\System32\WindowsPowerShell\v1.0\;C:\Program Files\nodejs\;C:\Program Files\Git\cmd;C:\xampp\php;C:\ProgramData\ComposerSetup\bin;C:\Program Files\Microsoft VS Code\bin;C:\WINDOWS\System32\OpenSSH\;;C:\Program Files\Microsoft VS Code\bin;C:\Users\JUMIA-2804\AppData\Roaming\npm;C:\xampp\php;C:\Users\JUMIA-2804\AppData\Roaming\Composer\vendor\bin;C:\Users\JUMIA-2804\AppData\Local\Microsoft\WindowsApps
USERNAME=JUMIA-2804
OS=Windows_NT
PROCESSOR_IDENTIFIER=Intel64 Family 6 Model 158 Stepping 9, GenuineIntel



---------------  S Y S T E M  ---------------

OS: Windows 10.0 , 64 bit Build 17134 (10.0.17134.1)

CPU:total 8 (initial active 8) (4 cores per cpu, 2 threads per core) family 6 model 158 stepping 9, cmov, cx8, fxsr, mmx, sse, sse2, sse3, ssse3, sse4.1, sse4.2, popcnt, avx, avx2, aes, clmul, erms, 3dnowpref, lzcnt, ht, tsc, tscinvbit, bmi1, bmi2, adx

Memory: 4k page, physical 16635848k(1210224k free), swap 27915996k(5256k free)

vm_info: OpenJDK 64-Bit Server VM (25.152-b02) for windows-amd64 JRE (1.8.0_152-release-1024-b02), built by "builder" with MS VC++ 10.0 (VS2010)

time: Tue Nov 20 11:53:39 2018
elapsed time: 39 seconds (0d 0h 0m 39s)

